Module- Machine Learning Models I"
…
null_fit<-
  null_wflow %>%
  fit(data = train_data )

Predictions based on null model

prediction_train<-predict(null_fit, train_data)

prediction_test <-predict(null_fit, test_data)

prediction_train

## # A tibble: 546 x 1
##    .pred
##    <dbl>
##  1  98.9
##  2  98.9
##  3  98.9
##  4  98.9
##  5  98.9
##  6  98.9
##  7  98.9
##  8  98.9
##  9  98.9
## 10  98.9
## # ... with 536 more rows

prediction_test

## # A tibble: 184 x 1
##    .pred
##    <dbl>
##  1  98.9
##  2  98.9
##  3  98.9
##  4  98.9
##  5  98.9
##  6  98.9
##  7  98.9
##  8  98.9
##  9  98.9
## 10  98.9
## # ... with 174 more rows
…
#Tune grid specification:

tree_grid <-
  grid_regular(cost_complexity(),
               tree_depth(),
               levels = 5)

##25 different possible tuning combinations

tree_grid

## # A tibble: 25 x 2
##    cost_complexity tree_depth
##              <dbl>      <int>
##  1    0.0000000001          1
##  2    0.0000000178          1
##  3    0.00000316            1
##  4    0.000562              1
##  5    0.1                   1
##  6    0.0000000001          4
##  7    0.0000000178          4
##  8    0.00000316            4
##  9    0.000562              4
## 10    0.1                   4
## # ... with 15 more rows
…
tree_workflow <- workflow() %>%
    add_model(tune_spec) %>%
     add_recipe(recipe_BT)

tree_res <- tree_workflow %>%
     tune::tune_grid(resamples = fold_5_data,
                     grid = tree_grid,
                     control = control_grid(verbose = FALSE, save_pred = TRUE),                                    metrics = metric_set(rmse))

##The function collect_metrics() gives us a tidy tibble with all the results

  tree_res %>% 
   collect_metrics()

## # A tibble: 25 x 8
##    cost_complexity tree_depth .metric .estimator  mean     n std_err .config    
##              <dbl>      <int> <chr>   <chr>      <dbl> <int>   <dbl> <chr>      
##  1    0.0000000001          1 rmse    standard    1.18    25  0.0130 Preprocess~
##  2    0.0000000178          1 rmse    standard    1.18    25  0.0130 Preprocess~
##  3    0.00000316            1 rmse    standard    1.18    25  0.0130 Preprocess~
##  4    0.000562              1 rmse    standard    1.18    25  0.0130 Preprocess~
##  5    0.1                   1 rmse    standard    1.19    25  0.0123 Preprocess~
##  6    0.0000000001          4 rmse    standard    1.22    25  0.0142 Preprocess~
##  7    0.0000000178          4 rmse    standard    1.22    25  0.0142 Preprocess~
##  8    0.00000316            4 rmse    standard    1.22    25  0.0142 Preprocess~
##  9    0.000562              4 rmse    standard    1.22    25  0.0142 Preprocess~
## 10    0.1                   4 rmse    standard    1.19    25  0.0123 Preprocess~
## # ... with 15 more rows
…
lasso_res <-
    lasso_workflow %>%
     tune_grid(fold_5_data,
grid = lasso_grid,
               control = 
                   control_grid(save_pred = TRUE),
              metrics = 
                   metric_set(rmse))

 lasso_res

## # Tuning results
## # 5-fold cross-validation repeated 5 times using stratification 
## # A tibble: 25 x 6
##    splits            id      id2   .metrics          .notes           .predictions
##    <list>            <chr>   <chr> <list>            <list>           <list>      
##  1 <split [435/111]> Repeat1 Fold1 <tibble [30 x 5]> <tibble [0 x 1]> <tibble [3,~
##  2 <split [436/110]> Repeat1 Fold2 <tibble [30 x 5]> <tibble [0 x 1]> <tibble [3,~
##  3 <split [437/109]> Repeat1 Fold3 <tibble [30 x 5]> <tibble [0 x 1]> <tibble [3,~
##  4 <split [438/108]> Repeat1 Fold4 <tibble [30 x 5]> <tibble [0 x 1]> <tibble [3,~
##  5 <split [438/108]> Repeat1 Fold5 <tibble [30 x 5]> <tibble [0 x 1]> <tibble [3,~
##  6 <split [435/111]> Repeat2 Fold1 <tibble [30 x 5]> <tibble [0 x 1]> <tibble [3,~
##  7 <split [436/110]> Repeat2 Fold2 <tibble [30 x 5]> <tibble [0 x 1]> <tibble [3,~
##  8 <split [437/109]> Repeat2 Fold3 <tibble [30 x 5]> <tibble [0 x 1]> <tibble [3,~
##  9 <split [438/108]> Repeat2 Fold4 <tibble [30 x 5]> <tibble [0 x 1]> <tibble [3,~
## 10 <split [438/108]> Repeat2 Fold5 <tibble [30 x 5]> <tibble [0 x 1]> <tibble [3,~
## # ... with 15 more rows
…
## v Fold5, Repeat5: preprocessor 1/1, model 23/24

## i Fold5, Repeat5: preprocessor 1/1, model 23/24 (predictions)

## i Fold5, Repeat5: preprocessor 1/1, model 24/24

## v Fold5, Repeat5: preprocessor 1/1, model 24/24

## i Fold5, Repeat5: preprocessor 1/1, model 24/24 (predictions)

#Looking at the models created by random forest
rf_res %>% 
  collect_metrics()

## # A tibble: 24 x 8
##     mtry min_n .metric .estimator  mean     n std_err .config              
##    <int> <int> <chr>   <chr>      <dbl> <int>   <dbl> <chr>                
##  1     7    15 rmse    standard    1.18    25  0.0144 Preprocessor1_Model01
##  2    31     2 rmse    standard    1.22    25  0.0160 Preprocessor1_Model02
##  3    24    36 rmse    standard    1.18    25  0.0149 Preprocessor1_Model03
##  4    24    29 rmse    standard    1.18    25  0.0151 Preprocessor1_Model04
##  5     9    25 rmse    standard    1.17    25  0.0143 Preprocessor1_Model05
##  6    29    32 rmse    standard    1.19    25  0.0149 Preprocessor1_Model06
##  7    10    40 rmse    standard    1.17    25  0.0140 Preprocessor1_Model07
##  8    20    22 rmse    standard    1.19    25  0.0152 Preprocessor1_Model08
##  9    26    12 rmse    standard    1.20    25  0.0159 Preprocessor1_Model09
## 10    27    17 rmse    standard    1.20    25  0.0156 Preprocessor1_Model10
## # ... with 14 more rows
…
# finalize workflow 
final_rf_workflow <- 
  rf_workflow %>%
  finalize_workflow(rf_best)

fit_best_forest <- final_rf_workflow %>% 
  fit(data = train_data)

# Use a trained workflow to predict section using train data

predict(fit_best_forest, new_data = train_data)

## # A tibble: 546 x 1
##    .pred
##    <dbl>
##  1  98.6
##  2  99.5
##  3  98.6
##  4  98.7
##  5  98.9
##  6  98.9
##  7  99.0
##  8  98.6
##  9  99.3
## 10  98.4
## # ... with 536 more rows
…
