Cross-Validation, ROC-Auc, and RMSE
…
#Preparing  the recipe and train the model

nausea_fit <- 
  nausea_wflow %>% 
  fit(data = train_data)

# Extracting model

nausea_fit %>% 
 extract_fit_parsnip() %>% 
  tidy()

## # A tibble: 38 x 5
##    term                 estimate std.error statistic p.value
##    <chr>                   <dbl>     <dbl>     <dbl>   <dbl>
##  1 (Intercept)           -2.23       9.39    -0.238   0.812 
##  2 SwollenLymphNodesYes  -0.203      0.236   -0.861   0.389 
##  3 ChestCongestionYes     0.218      0.260    0.836   0.403 
##  4 ChillsSweatsYes        0.212      0.343    0.619   0.536 
##  5 NasalCongestionYes     0.531      0.316    1.68    0.0924
##  6 CoughYNYes            -0.113      0.596   -0.190   0.849 
##  7 SneezeYes              0.183      0.253    0.725   0.468 
##  8 FatigueYes             0.212      0.495    0.428   0.669 
##  9 SubjectiveFeverYes     0.0165     0.269    0.0613  0.951 
## 10 HeadacheYes            0.549      0.367    1.50    0.135 
## # ... with 28 more rows

# Predicting with unseen test data

predict(nausea_fit, test_data)

## Warning in predict.lm(object, newdata, se.fit, scale = 1, type = if (type == :
## prediction from a rank-deficient fit may be misleading

## # A tibble: 183 x 1
##    .pred_class
##    <fct>      
##  1 No         
##  2 No         
##  3 No         
##  4 No         
##  5 Yes        
##  6 No         
##  7 No         
##  8 No         
##  9 No         
## 10 No         
## # ... with 173 more rows
…
Nausea_aug = augment(nausea_fit, test_data)

## Warning in predict.lm(object, newdata, se.fit, scale = 1, type = if (type == :
## prediction from a rank-deficient fit may be misleading

## Warning in predict.lm(object, newdata, se.fit, scale = 1, type = if (type == :
## prediction from a rank-deficient fit may be misleading

# The data look like:

Nausea_aug %>% 
  select(Nausea, .pred_class, .pred_Yes)

## # A tibble: 183 x 3
##    Nausea .pred_class .pred_Yes
##    <fct>  <fct>           <dbl>
##  1 Yes    No             0.0901
##  2 Yes    No             0.409 
##  3 No     No             0.410 
##  4 No     No             0.428 
##  5 Yes    Yes            0.975 
##  6 No     No             0.241 
##  7 Yes    No             0.194 
##  8 No     No             0.260 
##  9 No     No             0.341 
## 10 No     No             0.206 
## # ... with 173 more rows
…
nausea_runnynose_fit %>% 
  extract_fit_parsnip() %>% 
  tidy()

## # A tibble: 2 x 5
##   term         estimate std.error statistic    p.value
##   <chr>           <dbl>     <dbl>     <dbl>      <dbl>
## 1 (Intercept)    -0.772     0.173    -4.47  0.00000794
## 2 RunnyNoseYes    0.184     0.202     0.908 0.364

# Predicting with unseen test data

predict(nausea_runnynose_fit, test_data)

## # A tibble: 183 x 1
##    .pred_class
##    <fct>      
##  1 No         
##  2 No         
##  3 No         
##  4 No         
##  5 No         
##  6 No         
##  7 No         
##  8 No         
##  9 No         
## 10 No         
## # ... with 173 more rows

# Probabilities 

Nausea_runnynose_aug = augment(nausea_runnynose_fit, test_data)

# The data look like:

Nausea_runnynose_aug %>% 
  select(Nausea, .pred_class, .pred_Yes)

## # A tibble: 183 x 3
##    Nausea .pred_class .pred_Yes
##    <fct>  <fct>           <dbl>
##  1 Yes    No              0.316
##  2 Yes    No              0.316
##  3 No     No              0.357
##  4 No     No              0.357
##  5 Yes    No              0.316
##  6 No     No              0.357
##  7 Yes    No              0.357
##  8 No     No              0.316
##  9 No     No              0.316
## 10 No     No              0.357
## # ... with 173 more rows
…
