Tidy Tuesday2
…
## -- Conflicts ----------------------------------------- tidymodels_conflicts() --
## x scales::discard() masks purrr::discard()
## x dplyr::filter()   masks stats::filter()
## x recipes::fixed()  masks stringr::fixed()
## x dplyr::lag()      masks stats::lag()
## x yardstick::spec() masks readr::spec()
## x recipes::step()   masks stats::step()
## * Search for functions across packages at https://www.tidymodels.org/find/

tibble(theoffice)

## # A tibble: 55,130 x 12
##    index season episode episode_name director   writer     character text       
##    <int>  <int>   <int> <chr>        <chr>      <chr>      <chr>     <chr>      
##  1     1      1       1 Pilot        Ken Kwapis Ricky Ger~ Michael   All right ~
##  2     2      1       1 Pilot        Ken Kwapis Ricky Ger~ Jim       Oh, I told~
##  3     3      1       1 Pilot        Ken Kwapis Ricky Ger~ Michael   So you've ~
##  4     4      1       1 Pilot        Ken Kwapis Ricky Ger~ Jim       Actually, ~
##  5     5      1       1 Pilot        Ken Kwapis Ricky Ger~ Michael   All right.~
##  6     6      1       1 Pilot        Ken Kwapis Ricky Ger~ Michael   Yes, I'd l~
##  7     7      1       1 Pilot        Ken Kwapis Ricky Ger~ Michael   I've, uh, ~
##  8     8      1       1 Pilot        Ken Kwapis Ricky Ger~ Pam       Well. I do~
##  9     9      1       1 Pilot        Ken Kwapis Ricky Ger~ Michael   If you thi~
## 10    10      1       1 Pilot        Ken Kwapis Ricky Ger~ Pam       What?      
## # ... with 55,120 more rows, and 4 more variables: text_w_direction <chr>,
## #   imdb_rating <dbl>, total_votes <int>, air_date <fct>
…
## Rows: 188 Columns: 6

## -- Column specification --------------------------------------------------------
## Delimiter: ","
## chr  (1): title
## dbl  (4): season, episode, imdb_rating, total_votes
## date (1): air_date

## 
## i Use `spec()` to retrieve the full column specification for this data.
## i Specify the column types or set `show_col_types = FALSE` to quiet this message.

office_ratings

## # A tibble: 188 x 6
##    season episode title             imdb_rating total_votes air_date  
##     <dbl>   <dbl> <chr>                   <dbl>       <dbl> <date>    
##  1      1       1 Pilot                     7.6        3706 2005-03-24
##  2      1       2 Diversity Day             8.3        3566 2005-03-29
##  3      1       3 Health Care               7.9        2983 2005-04-05
##  4      1       4 The Alliance              8.1        2886 2005-04-12
##  5      1       5 Basketball                8.4        3179 2005-04-19
##  6      1       6 Hot Girl                  7.8        2852 2005-04-26
##  7      2       1 The Dundies               8.7        3213 2005-09-20
##  8      2       2 Sexual Harassment         8.2        2736 2005-09-27
##  9      2       3 Office Olympics           8.4        2742 2005-10-04
## 10      2       4 The Fire                  8.4        2713 2005-10-11
## # ... with 178 more rows
…
