Visualization
…
## Rows: 403 Columns: 69

## -- Column specification --------------------------------------------------------
## Delimiter: ","
## chr  (2): EPISODE, TITLE
## dbl (67): APPLE_FRAME, AURORA_BOREALIS, BARN, BEACH, BOAT, BRIDGE, BUILDING,...

## 
## i Use `spec()` to retrieve the full column specification for this data.
## i Specify the column types or set `show_col_types = FALSE` to quiet this message.

bob_ross

## # A tibble: 403 x 69
##    EPISODE TITLE   APPLE_FRAME AURORA_BOREALIS  BARN BEACH  BOAT BRIDGE BUILDING
##    <chr>   <chr>         <dbl>           <dbl> <dbl> <dbl> <dbl>  <dbl>    <dbl>
##  1 S01E01  "\"A W~           0               0     0     0     0      0        0
##  2 S01E02  "\"MT.~           0               0     0     0     0      0        0
##  3 S01E03  "\"EBO~           0               0     0     0     0      0        0
##  4 S01E04  "\"WIN~           0               0     0     0     0      0        0
##  5 S01E05  "\"QUI~           0               0     0     0     0      0        0
##  6 S01E06  "\"WIN~           0               0     0     0     0      0        0
##  7 S01E07  "\"AUT~           0               0     0     0     0      0        0
##  8 S01E08  "\"PEA~           0               0     0     0     0      0        0
##  9 S01E09  "\"SEA~           0               0     0     1     0      0        0
## 10 S01E10  "\"MOU~           0               0     0     0     0      0        0
## # ... with 393 more rows, and 60 more variables: BUSHES <dbl>, CABIN <dbl>,
## #   CACTUS <dbl>, CIRCLE_FRAME <dbl>, CIRRUS <dbl>, CLIFF <dbl>, CLOUDS <dbl>,
## #   CONIFER <dbl>, CUMULUS <dbl>, DECIDUOUS <dbl>, DIANE_ANDRE <dbl>,
## #   DOCK <dbl>, DOUBLE_OVAL_FRAME <dbl>, FARM <dbl>, FENCE <dbl>, FIRE <dbl>,
## #   FLORIDA_FRAME <dbl>, FLOWERS <dbl>, FOG <dbl>, FRAMED <dbl>, GRASS <dbl>,
## #   GUEST <dbl>, HALF_CIRCLE_FRAME <dbl>, HALF_OVAL_FRAME <dbl>, HILLS <dbl>,
## #   LAKE <dbl>, LAKES <dbl>, LIGHTHOUSE <dbl>, MILL <dbl>, MOON <dbl>, ...
…
